What Kind Of Soccer Players Should I Buy?
…
players

## # A tibble: 168,147 x 43
##     id.x player_api_id player_name     player_fifa_api_ birthday   height
##    <int>         <int> <chr>                       <int> <date>      <dbl>
##  1     1        505942 Aaron Appindan            218353 1992-02-29    183
##  2     1        505942 Aaron Appindan            218353 1992-02-29    183
##  3     1        505942 Aaron Appindan            218353 1992-02-29    183
##  4     1        505942 Aaron Appindan            218353 1992-02-29    183
##  5     1        505942 Aaron Appindan            218353 1992-02-29    183
##  6     2        155782 Aaron Cresswell            189615 1989-12-15    170
##  7     2        155782 Aaron Cresswell            189615 1989-12-15    170
##  8     2        155782 Aaron Cresswell            189615 1989-12-15    170
##  9     2        155782 Aaron Cresswell            189615 1989-12-15    170
## 10     2        155782 Aaron Cresswell            189615 1989-12-15    170
## # ... with 168,137 more rows, and 37 more variables: weight <int>,
## #   date <date>, overall_rating <int>, potential <int>,
## #   preferred_foot <chr>, attacking_work_rate <chr>,
## #   defensive_work_rate <chr>, crossing <int>, finishing <int>,
## #   heading_accuracy <int>, short_passing <int>, volleys <int>,
## #   dribbling <int>, curve <int>, free_kick_accuracy <int>,
## #   long_passing <int>, ball_control <int>, acceleration <int>,
## #   sprint_speed <int>, agility <int>, reactions <int>, balance <int>,
## #   shot_power <int>, jumping <int>, stamina <int>, strength <int>,
…
  players2 <- players %>% filter(year == "2012" |
                                 year == "2013" |
                                 year == "2014" |
                                 year == "2015" | 
                                 year == "2016" )
  players3 <- players2 %>% group_by(year,id.x) %>% mutate(av_overall_rating = sum(overall_rating)/n()) %>% ungroup()
  ## calculate the average 
  players3 <- players3 %>% distinct(id.x, year, .keep_all = TRUE) ##delete the duplicate for next step
  players4 <- players3 %>%      ## seperate them
    select(id.x,year,av_overall_rating) %>%
    tidyr::spread(year,av_overall_rating)
  players4 <- players4 %>% drop_na()      ## drop NA
  players4

## # A tibble: 3,440 x 6
##     id.x `2012` `2013` `2014` `2015` `2016`
##    <int>  <dbl>  <dbl>  <dbl>  <dbl>  <dbl>
##  1     2   66.5   69.2   70.3   72.8   73.7
##  2     3   65.0   69.8   68.0   66.0   65.0
##  3     4   69.5   67.7   67.0   68.0   69.0
##  4     6   75.0   79.0   78.5   77.2   77.0
##  5    12   62.0   65.0   65.0   69.7   74.5
##  6    14   64.5   66.4   69.5   70.6   70.0
##  7    15   78.0   78.2   81.8   82.0   82.0
##  8    18   62.0   63.0   63.8   65.5   65.0
##  9    21   75.5   74.0   74.0   74.7   74.0
## 10    23   72.0   71.3   71.0   72.0   73.0
## # ... with 3,430 more rows

(2)

In this step, we need to prepare outcome_df. We use value of 2016-2015 as our outcome

outcome_df <- players4 %>%
  mutate(diff = `2016` - `2015`) %>%
  mutate(Direction = ifelse(diff>0, "up", "down")) %>%
  select(id.x, Direction)
outcome_df

## # A tibble: 3,440 x 2
##     id.x Direction
##    <int> <chr>    
##  1     2 up       
##  2     3 down     
##  3     4 up       
##  4     6 down     
##  5    12 up       
##  6    14 down     
##  7    15 down     
##  8    18 down     
##  9    21 down     
## 10    23 up       
## # ... with 3,430 more rows
…
diff_df <- (matrix_1 - matrix_2) %>%
  magrittr::set_colnames(NULL) %>%
  as_data_frame() %>%
  mutate(id.x = players4$id.x)

final_df <- diff_df %>%
  inner_join(outcome_df %>% select(id.x, Direction), by="id.x") %>%
  mutate(Direction=factor(Direction, levels=c("down", "up")))
final_df

## # A tibble: 3,440 x 6
##        V1     V2     V3     V4  id.x Direction
##     <dbl>  <dbl>  <dbl>  <dbl> <int> <fct>    
##  1  2.72   1.11   2.50   0.833     2 up       
##  2  4.78  -1.78  -2.00  -1.00      3 down     
##  3 -1.83  -0.667  1.00   1.00      4 up       
##  4  4.00  -0.500 -1.30  -0.200     6 down     
##  5  3.00   0      4.70   4.80     12 up       
##  6  1.90   3.10   1.12  -0.625    14 down     
##  7  0.167  3.67   0.167  0        15 down     
##  8  1.00   0.750  1.75  -0.500    18 down     
##  9 -1.50   0      0.667 -0.667    21 down     
## 10 -0.667 -0.333  1.00   1.00     23 up       
## # ... with 3,430 more rows
…
